%YAML 1.1
%TAG !u! tag:unity3d.com,2011:
--- !u!1001 &6458658375248588385
PrefabInstance:
  m_ObjectHideFlags: 0
  serializedVersion: 2
  m_Modification:
    serializedVersion: 3
    m_TransformParent: {fileID: 0}
    m_Modifications:
    - target: {fileID: 1472421065860598048, guid: 648a4fc086078d543877c5c97e67b723, type: 3}
      propertyPath: redHp
      value: -2
      objectReference: {fileID: 0}
    - target: {fileID: 1472421065860598048, guid: 648a4fc086078d543877c5c97e67b723, type: 3}
      propertyPath: greenHp
      value: -1
      objectReference: {fileID: 0}
    - target: {fileID: 2570513649524585090, guid: 648a4fc086078d543877c5c97e67b723, type: 3}
      propertyPath: m_SpriteTilingProperty.oldSize.x
      value: 1.98
      objectReference: {fileID: 0}
    - target: {fileID: 2570513649524585090, guid: 648a4fc086078d543877c5c97e67b723, type: 3}
      propertyPath: m_SpriteTilingProperty.oldSize.y
      value: 3.19
      objectReference: {fileID: 0}
    - target: {fileID: 3629670559383161029, guid: 648a4fc086078d543877c5c97e67b723, type: 3}
      propertyPath: m_Sprite
      value: 
      objectReference: {fileID: -139881250, guid: de2834692a4fbcc40a96affe37665ab7, type: 3}
    - target: {fileID: 6353666873692730037, guid: 648a4fc086078d543877c5c97e67b723, type: 3}
      propertyPath: m_LocalPosition.x
      value: 0
      objectReference: {fileID: 0}
    - target: {fileID: 6353666873692730037, guid: 648a4fc086078d543877c5c97e67b723, type: 3}
      propertyPath: m_LocalPosition.y
      value: 0
      objectReference: {fileID: 0}
    - target: {fileID: 6353666873692730037, guid: 648a4fc086078d543877c5c97e67b723, type: 3}
      propertyPath: m_LocalPosition.z
      value: 0
      objectReference: {fileID: 0}
    - target: {fileID: 6353666873692730037, guid: 648a4fc086078d543877c5c97e67b723, type: 3}
      propertyPath: m_LocalRotation.w
      value: 1
      objectReference: {fileID: 0}
    - target: {fileID: 6353666873692730037, guid: 648a4fc086078d543877c5c97e67b723, type: 3}
      propertyPath: m_LocalRotation.x
      value: 0
      objectReference: {fileID: 0}
    - target: {fileID: 6353666873692730037, guid: 648a4fc086078d543877c5c97e67b723, type: 3}
      propertyPath: m_LocalRotation.y
      value: 0
      objectReference: {fileID: 0}
    - target: {fileID: 6353666873692730037, guid: 648a4fc086078d543877c5c97e67b723, type: 3}
      propertyPath: m_LocalRotation.z
      value: 0
      objectReference: {fileID: 0}
    - target: {fileID: 6353666873692730037, guid: 648a4fc086078d543877c5c97e67b723, type: 3}
      propertyPath: m_LocalEulerAnglesHint.x
      value: 0
      objectReference: {fileID: 0}
    - target: {fileID: 6353666873692730037, guid: 648a4fc086078d543877c5c97e67b723, type: 3}
      propertyPath: m_LocalEulerAnglesHint.y
      value: 0
      objectReference: {fileID: 0}
    - target: {fileID: 6353666873692730037, guid: 648a4fc086078d543877c5c97e67b723, type: 3}
      propertyPath: m_LocalEulerAnglesHint.z
      value: 0
      objectReference: {fileID: 0}
    - target: {fileID: 7861349747596568415, guid: 648a4fc086078d543877c5c97e67b723, type: 3}
      propertyPath: m_Name
      value: Shava
      objectReference: {fileID: 0}
    m_RemovedComponents: []
    m_RemovedGameObjects: []
    m_AddedGameObjects: []
    m_AddedComponents: []
  m_SourcePrefab: {fileID: 100100000, guid: 648a4fc086078d543877c5c97e67b723, type: 3}
